<?xml version="1.0" encoding="UTF-8"?>
<svg width="32px" height="73px" viewBox="0 0 32 73" version="1.1" xmlns="http://www.w3.org/2000/svg" xmlns:xlink="http://www.w3.org/1999/xlink">
    <!-- Generator: Sketch 62 (91390) - https://sketch.com -->
    <title>Group 2</title>
    <desc>Created with Sketch.</desc>
    <g id="Page-1" stroke="none" stroke-width="1" fill="none" fill-rule="evenodd">
        <g id="Group-2" transform="translate(-3.000000, -23.000000)">
            <g id="Group" transform="translate(2.000000, 70.000000)">
                <polyline id="Path" stroke="#000000" stroke-width="2" stroke-linecap="round" points="7 12 13.1059751 18 18 12"></polyline>
                <circle id="Oval" stroke="#000000" stroke-width="2" cx="13" cy="14" r="11"></circle>
                <rect id="Rectangle" fill="#FFFFFF" x="7" y="0" width="11" height="8"></rect>
            </g>
            <path d="M17.9513155,50.58 L17.951,39.115 L18.0720078,39.3201923 C18.5995463,40.1807308 19.2548155,40.8855 20.0378155,41.4345 C21.1688155,42.2275 22.5143155,42.624 24.0743155,42.624 C25.5563155,42.624 26.9408155,42.26 28.2278155,41.532 C29.5148155,40.804 30.5678155,39.725 31.3868155,38.295 C32.2058155,36.865 32.6153155,35.11 32.6153155,33.03 C32.6153155,30.924 32.2058155,29.1625 31.3868155,27.7455 C30.5678155,26.3285 29.5148155,25.256 28.2278155,24.528 C26.9408155,23.8 25.5563155,23.436 24.0743155,23.436 C22.5143155,23.436 21.1688155,23.8325 20.0378155,24.6255 C19.2548155,25.1745 18.5995463,25.8761538 18.0720078,26.7304615 L17.951,26.935 L17.9513155,24.06 L12.0623155,24.06 L12.0623155,50.58 L17.9513155,50.58 Z M22.1243155,37.398 C21.4483155,37.398 20.7918155,37.2355 20.1548155,36.9105 C19.5178155,36.5855 18.9913155,36.098 18.5753155,35.448 C18.1593155,34.798 17.9513155,33.992 17.9513155,33.03 C17.9513155,32.068 18.1593155,31.262 18.5753155,30.612 C18.9913155,29.962 19.5178155,29.4745 20.1548155,29.1495 C20.7918155,28.8245 21.4483155,28.662 22.1243155,28.662 C22.9043155,28.662 23.6193155,28.831 24.2693155,29.169 C24.9193155,29.507 25.4393155,30.001 25.8293155,30.651 C26.2193155,31.301 26.4143155,32.094 26.4143155,33.03 C26.4143155,33.966 26.2193155,34.759 25.8293155,35.409 C25.4393155,36.059 24.9193155,36.553 24.2693155,36.891 C23.6193155,37.229 22.9043155,37.398 22.1243155,37.398 Z" id="p" fill="#000000" fill-rule="nonzero"></path>
            <path d="M17.9513155,76.58 L17.951,65.115 L18.0720078,65.3201923 C18.5995463,66.1807308 19.2548155,66.8855 20.0378155,67.4345 C21.1688155,68.2275 22.5143155,68.624 24.0743155,68.624 C25.5563155,68.624 26.9408155,68.26 28.2278155,67.532 C29.5148155,66.804 30.5678155,65.725 31.3868155,64.295 C32.2058155,62.865 32.6153155,61.11 32.6153155,59.03 C32.6153155,56.924 32.2058155,55.1625 31.3868155,53.7455 C30.5678155,52.3285 29.5148155,51.256 28.2278155,50.528 C26.9408155,49.8 25.5563155,49.436 24.0743155,49.436 C22.5143155,49.436 21.1688155,49.8325 20.0378155,50.6255 C19.2548155,51.1745 18.5995463,51.8761538 18.0720078,52.7304615 L17.951,52.935 L17.9513155,50.06 L12.0623155,50.06 L12.0623155,76.58 L17.9513155,76.58 Z M22.1243155,63.398 C21.4483155,63.398 20.7918155,63.2355 20.1548155,62.9105 C19.5178155,62.5855 18.9913155,62.098 18.5753155,61.448 C18.1593155,60.798 17.9513155,59.992 17.9513155,59.03 C17.9513155,58.068 18.1593155,57.262 18.5753155,56.612 C18.9913155,55.962 19.5178155,55.4745 20.1548155,55.1495 C20.7918155,54.8245 21.4483155,54.662 22.1243155,54.662 C22.9043155,54.662 23.6193155,54.831 24.2693155,55.169 C24.9193155,55.507 25.4393155,56.001 25.8293155,56.651 C26.2193155,57.301 26.4143155,58.094 26.4143155,59.03 C26.4143155,59.966 26.2193155,60.759 25.8293155,61.409 C25.4393155,62.059 24.9193155,62.553 24.2693155,62.891 C23.6193155,63.229 22.9043155,63.398 22.1243155,63.398 Z" id="p" fill="#000000" fill-rule="nonzero"></path>
            <polygon id="Path-3" fill="#FFFFFF" points="17.9903342 49.3571611 17.9903342 70.997803 34.7469071 70.997803 34.7469071 45.997803"></polygon>
        </g>
    </g>
</svg>